<svg width="147" height="850" viewBox="0 0 147 850" fill="none" xmlns="http://www.w3.org/2000/svg">
<path d="M0 0H90.5C99.7328 56 99.8655 144.182 84 197C48 385.5 35 462 116.5 656C157 786.5 145 829 145 850H0V0Z" fill="#2DBAD4"/>
</svg>
