<svg width="468" height="394" viewBox="0 0 468 394" fill="none" xmlns="http://www.w3.org/2000/svg">
<path d="M156.414 315.859C109.672 294.157 70.5595 256.065 57.9757 205.627C45.0578 153.849 59.0839 99.1577 92.0406 57.8389C124.833 16.7255 174.557 -8.66071 226.89 -6.14675C276.933 -3.74286 317.168 30.573 348.759 70.171C380.797 110.33 408.472 158.175 398.096 208.454C387.544 259.592 345.002 296.025 297.826 316.99C252.538 337.116 201.622 336.849 156.414 315.859Z" fill="#D4165E"/>
<path d="M158.323 89.5L161.523 102.1L173.723 99.1V154H188.923V83.5H178.423L158.323 89.5ZM256.61 134.3C256.61 130.1 255.61 126.767 253.61 124.3C251.677 121.767 248.91 119.567 245.31 117.7C248.044 116.033 250.21 114 251.81 111.6C253.41 109.2 254.21 106.1 254.21 102.3C254.21 99.6333 253.61 97.1333 252.41 94.8C251.277 92.4 249.61 90.3333 247.41 88.6C245.277 86.8667 242.677 85.5 239.61 84.5C236.61 83.5 233.277 83 229.61 83C225.877 83 222.51 83.5 219.51 84.5C216.51 85.5 213.91 86.8667 211.71 88.6C209.577 90.3333 207.91 92.4 206.71 94.8C205.577 97.1333 205.01 99.6333 205.01 102.3C205.01 106.1 205.81 109.2 207.41 111.6C209.01 114 211.177 116.033 213.91 117.7C210.177 119.433 207.344 121.633 205.41 124.3C203.544 126.9 202.61 130.367 202.61 134.7C202.61 137.767 203.277 140.567 204.61 143.1C206.01 145.567 207.91 147.7 210.31 149.5C212.71 151.233 215.544 152.6 218.81 153.6C222.144 154.533 225.744 155 229.61 155C233.477 155 237.044 154.533 240.31 153.6C243.644 152.667 246.51 151.333 248.91 149.6C251.31 147.8 253.177 145.633 254.51 143.1C255.91 140.5 256.61 137.567 256.61 134.3ZM239.61 104C239.61 106.533 238.71 108.6 236.91 110.2C235.11 111.8 232.677 112.6 229.61 112.6C226.544 112.6 224.11 111.8 222.31 110.2C220.51 108.533 219.61 106.433 219.61 103.9C219.61 101.7 220.477 99.8 222.21 98.2C223.944 96.5333 226.41 95.7 229.61 95.7C232.81 95.7 235.277 96.5333 237.01 98.2C238.744 99.8667 239.61 101.8 239.61 104ZM241.71 133.5C241.71 136.033 240.644 138.133 238.51 139.8C236.377 141.467 233.41 142.3 229.61 142.3C225.81 142.3 222.844 141.467 220.71 139.8C218.577 138.133 217.51 136.033 217.51 133.5C217.51 130.7 218.644 128.567 220.91 127.1C223.177 125.567 226.077 124.8 229.61 124.8C233.144 124.8 236.044 125.567 238.31 127.1C240.577 128.567 241.71 130.7 241.71 133.5ZM263.499 89.5L266.699 102.1L278.899 99.1V154H294.099V83.5H283.599L263.499 89.5ZM93.8498 177.88V177.84C93.8498 177.12 93.7232 176.467 93.4698 175.88C93.2298 175.28 92.8765 174.767 92.4098 174.34C91.9565 173.913 91.3965 173.587 90.7298 173.36C90.0765 173.12 89.3298 173 88.4898 173H82.7698V187H85.8498V182.8H88.1898C88.9765 182.8 89.7098 182.7 90.3898 182.5C91.0832 182.287 91.6832 181.973 92.1898 181.56C92.7098 181.147 93.1165 180.633 93.4098 180.02C93.7032 179.407 93.8498 178.693 93.8498 177.88ZM90.7298 177.94C90.7298 178.54 90.5165 179.047 90.0898 179.46C89.6632 179.86 89.0632 180.06 88.2898 180.06H85.8498V175.78H88.2298C89.0032 175.78 89.6098 175.96 90.0498 176.32C90.5032 176.68 90.7298 177.207 90.7298 177.9V177.94ZM110.389 180V179.96C110.389 178.96 110.203 178.027 109.829 177.16C109.469 176.28 108.956 175.52 108.289 174.88C107.636 174.227 106.856 173.713 105.949 173.34C105.043 172.953 104.049 172.76 102.969 172.76C101.889 172.76 100.889 172.953 99.9692 173.34C99.0626 173.713 98.2759 174.233 97.6092 174.9C96.9559 175.553 96.4426 176.32 96.0692 177.2C95.6959 178.067 95.5092 179 95.5092 180V180.04C95.5092 181.04 95.6892 181.98 96.0492 182.86C96.4226 183.727 96.9359 184.487 97.5892 185.14C98.2559 185.78 99.0426 186.293 99.9492 186.68C100.856 187.053 101.849 187.24 102.929 187.24C104.009 187.24 105.003 187.053 105.909 186.68C106.829 186.293 107.616 185.773 108.269 185.12C108.936 184.453 109.456 183.687 109.829 182.82C110.203 181.94 110.389 181 110.389 180ZM107.169 180.04C107.169 180.64 107.063 181.207 106.849 181.74C106.649 182.26 106.363 182.72 105.989 183.12C105.629 183.52 105.189 183.833 104.669 184.06C104.149 184.287 103.583 184.4 102.969 184.4C102.343 184.4 101.769 184.287 101.249 184.06C100.743 183.82 100.296 183.5 99.9092 183.1C99.5359 182.7 99.2426 182.233 99.0292 181.7C98.8292 181.167 98.7292 180.6 98.7292 180V179.96C98.7292 179.36 98.8292 178.8 99.0292 178.28C99.2426 177.747 99.5292 177.28 99.8892 176.88C100.263 176.48 100.703 176.167 101.209 175.94C101.729 175.713 102.303 175.6 102.929 175.6C103.543 175.6 104.109 175.72 104.629 175.96C105.149 176.187 105.596 176.5 105.969 176.9C106.356 177.3 106.649 177.767 106.849 178.3C107.063 178.833 107.169 179.4 107.169 180V180.04ZM125.561 187V173H122.521V181.62L115.961 173H113.121V187H116.161V178.1L122.941 187H125.561ZM139.522 175.84V173H127.922V175.84H132.182V187H135.262V175.84H139.522ZM156.151 180V179.96C156.151 178.96 155.964 178.027 155.591 177.16C155.231 176.28 154.718 175.52 154.051 174.88C153.398 174.227 152.618 173.713 151.711 173.34C150.804 172.953 149.811 172.76 148.731 172.76C147.651 172.76 146.651 172.953 145.731 173.34C144.824 173.713 144.038 174.233 143.371 174.9C142.718 175.553 142.204 176.32 141.831 177.2C141.458 178.067 141.271 179 141.271 180V180.04C141.271 181.04 141.451 181.98 141.811 182.86C142.184 183.727 142.698 184.487 143.351 185.14C144.018 185.78 144.804 186.293 145.711 186.68C146.618 187.053 147.611 187.24 148.691 187.24C149.771 187.24 150.764 187.053 151.671 186.68C152.591 186.293 153.378 185.773 154.031 185.12C154.698 184.453 155.218 183.687 155.591 182.82C155.964 181.94 156.151 181 156.151 180ZM152.931 180.04C152.931 180.64 152.824 181.207 152.611 181.74C152.411 182.26 152.124 182.72 151.751 183.12C151.391 183.52 150.951 183.833 150.431 184.06C149.911 184.287 149.344 184.4 148.731 184.4C148.104 184.4 147.531 184.287 147.011 184.06C146.504 183.82 146.058 183.5 145.671 183.1C145.298 182.7 145.004 182.233 144.791 181.7C144.591 181.167 144.491 180.6 144.491 180V179.96C144.491 179.36 144.591 178.8 144.791 178.28C145.004 177.747 145.291 177.28 145.651 176.88C146.024 176.48 146.464 176.167 146.971 175.94C147.491 175.713 148.064 175.6 148.691 175.6C149.304 175.6 149.871 175.72 150.391 175.96C150.911 176.187 151.358 176.5 151.731 176.9C152.118 177.3 152.411 177.767 152.611 178.3C152.824 178.833 152.931 179.4 152.931 180V180.04ZM169.003 182.86V182.82C169.003 182.207 168.903 181.68 168.703 181.24C168.516 180.8 168.23 180.42 167.843 180.1C167.47 179.767 167.003 179.487 166.443 179.26C165.896 179.02 165.27 178.807 164.563 178.62C163.963 178.46 163.463 178.32 163.063 178.2C162.676 178.08 162.37 177.953 162.143 177.82C161.916 177.687 161.756 177.54 161.663 177.38C161.583 177.207 161.543 177.007 161.543 176.78V176.74C161.543 176.393 161.69 176.107 161.983 175.88C162.29 175.64 162.743 175.52 163.343 175.52C163.943 175.52 164.543 175.647 165.143 175.9C165.743 176.14 166.356 176.473 166.983 176.9L168.583 174.58C167.863 174.007 167.07 173.567 166.203 173.26C165.35 172.953 164.41 172.8 163.383 172.8C162.663 172.8 162.003 172.9 161.403 173.1C160.803 173.3 160.283 173.587 159.843 173.96C159.416 174.333 159.083 174.78 158.843 175.3C158.603 175.807 158.483 176.38 158.483 177.02V177.06C158.483 177.753 158.59 178.333 158.803 178.8C159.03 179.267 159.343 179.66 159.743 179.98C160.143 180.287 160.63 180.547 161.203 180.76C161.776 180.973 162.416 181.167 163.123 181.34C163.71 181.487 164.183 181.627 164.543 181.76C164.916 181.893 165.203 182.027 165.403 182.16C165.616 182.293 165.756 182.44 165.823 182.6C165.903 182.747 165.943 182.92 165.943 183.12V183.16C165.943 183.573 165.763 183.9 165.403 184.14C165.056 184.367 164.563 184.48 163.923 184.48C163.123 184.48 162.383 184.327 161.703 184.02C161.036 183.713 160.383 183.3 159.743 182.78L157.923 184.96C158.763 185.72 159.696 186.287 160.723 186.66C161.75 187.02 162.796 187.2 163.863 187.2C164.623 187.2 165.316 187.107 165.943 186.92C166.57 186.72 167.11 186.44 167.563 186.08C168.016 185.707 168.37 185.253 168.623 184.72C168.876 184.173 169.003 183.553 169.003 182.86ZM190.572 180V179.96C190.572 178.973 190.392 178.06 190.032 177.22C189.672 176.367 189.159 175.627 188.492 175C187.839 174.373 187.052 173.887 186.132 173.54C185.226 173.18 184.226 173 183.132 173H177.672V187H183.132C184.226 187 185.226 186.82 186.132 186.46C187.052 186.1 187.839 185.607 188.492 184.98C189.159 184.353 189.672 183.613 190.032 182.76C190.392 181.907 190.572 180.987 190.572 180ZM187.352 180.04C187.352 180.667 187.246 181.233 187.032 181.74C186.832 182.247 186.546 182.687 186.172 183.06C185.812 183.433 185.372 183.72 184.852 183.92C184.332 184.12 183.759 184.22 183.132 184.22H180.752V175.78H183.132C183.759 175.78 184.332 175.887 184.852 176.1C185.372 176.3 185.812 176.587 186.172 176.96C186.546 177.333 186.832 177.78 187.032 178.3C187.246 178.82 187.352 179.387 187.352 180V180.04ZM203.977 187V184.26H196.377V181.32H202.977V178.58H196.377V175.74H203.877V173H193.317V187H203.977ZM225.011 184.74L223.051 182.76C222.505 183.267 221.951 183.667 221.391 183.96C220.845 184.253 220.171 184.4 219.371 184.4C218.771 184.4 218.218 184.287 217.711 184.06C217.218 183.82 216.791 183.5 216.431 183.1C216.085 182.7 215.811 182.233 215.611 181.7C215.411 181.167 215.311 180.6 215.311 180V179.96C215.311 179.36 215.411 178.8 215.611 178.28C215.811 177.747 216.091 177.28 216.451 176.88C216.811 176.48 217.238 176.167 217.731 175.94C218.238 175.713 218.785 175.6 219.371 175.6C220.078 175.6 220.711 175.74 221.271 176.02C221.845 176.3 222.405 176.687 222.951 177.18L224.911 174.92C224.591 174.6 224.245 174.307 223.871 174.04C223.498 173.773 223.091 173.547 222.651 173.36C222.211 173.173 221.718 173.027 221.171 172.92C220.638 172.813 220.045 172.76 219.391 172.76C218.311 172.76 217.325 172.953 216.431 173.34C215.538 173.713 214.771 174.233 214.131 174.9C213.491 175.553 212.991 176.32 212.631 177.2C212.271 178.067 212.091 179 212.091 180V180.04C212.091 181.04 212.271 181.98 212.631 182.86C212.991 183.74 213.491 184.507 214.131 185.16C214.771 185.8 215.531 186.307 216.411 186.68C217.291 187.053 218.245 187.24 219.271 187.24C219.951 187.24 220.565 187.18 221.111 187.06C221.658 186.953 222.158 186.793 222.611 186.58C223.078 186.353 223.505 186.087 223.891 185.78C224.278 185.473 224.651 185.127 225.011 184.74ZM241.117 187L235.117 172.9H232.277L226.277 187H229.417L230.697 183.86H236.617L237.897 187H241.117ZM235.517 181.14H231.797L233.657 176.6L235.517 181.14ZM255.378 187L251.958 182C252.851 181.667 253.571 181.147 254.118 180.44C254.678 179.72 254.958 178.793 254.958 177.66V177.62C254.958 176.167 254.491 175.033 253.558 174.22C252.638 173.407 251.344 173 249.678 173H243.278V187H246.358V182.52H248.778L251.778 187H255.378ZM251.838 177.82C251.838 178.42 251.631 178.9 251.218 179.26C250.818 179.62 250.238 179.8 249.478 179.8H246.358V175.78H249.418C250.178 175.78 250.771 175.947 251.198 176.28C251.624 176.613 251.838 177.113 251.838 177.78V177.82ZM269.831 187L266.411 182C267.304 181.667 268.024 181.147 268.571 180.44C269.131 179.72 269.411 178.793 269.411 177.66V177.62C269.411 176.167 268.944 175.033 268.011 174.22C267.091 173.407 265.797 173 264.131 173H257.731V187H260.811V182.52H263.231L266.231 187H269.831ZM266.291 177.82C266.291 178.42 266.084 178.9 265.671 179.26C265.271 179.62 264.691 179.8 263.931 179.8H260.811V175.78H263.871C264.631 175.78 265.224 175.947 265.651 176.28C266.077 176.613 266.291 177.113 266.291 177.78V177.82ZM282.844 187V184.26H275.244V181.32H281.844V178.58H275.244V175.74H282.744V173H272.184V187H282.844ZM298.302 185.02V178.94H292.222V181.6H295.322V183.6C294.536 184.16 293.569 184.44 292.422 184.44C291.796 184.44 291.222 184.333 290.702 184.12C290.196 183.893 289.749 183.58 289.362 183.18C288.989 182.78 288.696 182.313 288.482 181.78C288.282 181.233 288.182 180.64 288.182 180V179.96C288.182 179.36 288.282 178.8 288.482 178.28C288.696 177.747 288.982 177.287 289.342 176.9C289.716 176.5 290.142 176.187 290.622 175.96C291.116 175.72 291.642 175.6 292.202 175.6C292.602 175.6 292.969 175.633 293.302 175.7C293.636 175.767 293.942 175.86 294.222 175.98C294.516 176.1 294.796 176.247 295.062 176.42C295.329 176.593 295.596 176.793 295.862 177.02L297.802 174.68C297.442 174.373 297.069 174.1 296.682 173.86C296.296 173.62 295.882 173.42 295.442 173.26C295.002 173.1 294.522 172.98 294.002 172.9C293.496 172.807 292.929 172.76 292.302 172.76C291.236 172.76 290.256 172.953 289.362 173.34C288.469 173.713 287.696 174.233 287.042 174.9C286.389 175.553 285.876 176.32 285.502 177.2C285.142 178.067 284.962 179 284.962 180V180.04C284.962 181.08 285.142 182.04 285.502 182.92C285.862 183.8 286.362 184.56 287.002 185.2C287.656 185.84 288.429 186.34 289.322 186.7C290.229 187.06 291.229 187.24 292.322 187.24C293.602 187.24 294.736 187.027 295.722 186.6C296.722 186.16 297.582 185.633 298.302 185.02ZM314.906 187L308.906 172.9H306.066L300.066 187H303.206L304.486 183.86H310.406L311.686 187H314.906ZM309.306 181.14H305.586L307.446 176.6L309.306 181.14ZM331.067 187V173H327.747L324.067 178.92L320.387 173H317.067V187H320.087V177.92L323.987 183.84H324.067L328.007 177.86V187H331.067ZM345.09 187V184.26H337.49V181.32H344.09V178.58H337.49V175.74H344.99V173H334.43V187H345.09ZM360.268 187V173H357.228V181.62L350.668 173H347.828V187H350.868V178.1L357.648 187H360.268ZM374.229 175.84V173H362.629V175.84H366.889V187H369.969V175.84H374.229ZM390.858 180V179.96C390.858 178.96 390.671 178.027 390.298 177.16C389.938 176.28 389.425 175.52 388.758 174.88C388.105 174.227 387.325 173.713 386.418 173.34C385.511 172.953 384.518 172.76 383.438 172.76C382.358 172.76 381.358 172.953 380.438 173.34C379.531 173.713 378.745 174.233 378.078 174.9C377.425 175.553 376.911 176.32 376.538 177.2C376.165 178.067 375.978 179 375.978 180V180.04C375.978 181.04 376.158 181.98 376.518 182.86C376.891 183.727 377.405 184.487 378.058 185.14C378.725 185.78 379.511 186.293 380.418 186.68C381.325 187.053 382.318 187.24 383.398 187.24C384.478 187.24 385.471 187.053 386.378 186.68C387.298 186.293 388.085 185.773 388.738 185.12C389.405 184.453 389.925 183.687 390.298 182.82C390.671 181.94 390.858 181 390.858 180ZM387.638 180.04C387.638 180.64 387.531 181.207 387.318 181.74C387.118 182.26 386.831 182.72 386.458 183.12C386.098 183.52 385.658 183.833 385.138 184.06C384.618 184.287 384.051 184.4 383.438 184.4C382.811 184.4 382.238 184.287 381.718 184.06C381.211 183.82 380.765 183.5 380.378 183.1C380.005 182.7 379.711 182.233 379.498 181.7C379.298 181.167 379.198 180.6 379.198 180V179.96C379.198 179.36 379.298 178.8 379.498 178.28C379.711 177.747 379.998 177.28 380.358 176.88C380.731 176.48 381.171 176.167 381.678 175.94C382.198 175.713 382.771 175.6 383.398 175.6C384.011 175.6 384.578 175.72 385.098 175.96C385.618 176.187 386.065 176.5 386.438 176.9C386.825 177.3 387.118 177.767 387.318 178.3C387.531 178.833 387.638 179.4 387.638 180V180.04ZM118.043 204V203.96C118.043 202.973 117.863 202.06 117.503 201.22C117.143 200.367 116.63 199.627 115.963 199C115.31 198.373 114.523 197.887 113.603 197.54C112.696 197.18 111.696 197 110.603 197H105.143V211H110.603C111.696 211 112.696 210.82 113.603 210.46C114.523 210.1 115.31 209.607 115.963 208.98C116.63 208.353 117.143 207.613 117.503 206.76C117.863 205.907 118.043 204.987 118.043 204ZM114.823 204.04C114.823 204.667 114.716 205.233 114.503 205.74C114.303 206.247 114.016 206.687 113.643 207.06C113.283 207.433 112.843 207.72 112.323 207.92C111.803 208.12 111.23 208.22 110.603 208.22H108.223V199.78H110.603C111.23 199.78 111.803 199.887 112.323 200.1C112.843 200.3 113.283 200.587 113.643 200.96C114.016 201.333 114.303 201.78 114.503 202.3C114.716 202.82 114.823 203.387 114.823 204V204.04ZM131.447 211V208.26H123.847V205.32H130.447V202.58H123.847V199.74H131.347V197H120.787V211H131.447ZM153.022 197H149.702L146.042 206.86L142.382 197H138.982L144.642 211.1H147.362L153.022 197ZM165.842 211V208.26H158.242V205.32H164.842V202.58H158.242V199.74H165.742V197H155.182V211H165.842ZM171.8 211V197H168.72V211H171.8ZM171.32 195.9L173.88 193.5L171.26 192.36L169 195.9H171.32ZM187.599 208.74L185.639 206.76C185.092 207.267 184.539 207.667 183.979 207.96C183.432 208.253 182.759 208.4 181.959 208.4C181.359 208.4 180.806 208.287 180.299 208.06C179.806 207.82 179.379 207.5 179.019 207.1C178.672 206.7 178.399 206.233 178.199 205.7C177.999 205.167 177.899 204.6 177.899 204V203.96C177.899 203.36 177.999 202.8 178.199 202.28C178.399 201.747 178.679 201.28 179.039 200.88C179.399 200.48 179.826 200.167 180.319 199.94C180.826 199.713 181.372 199.6 181.959 199.6C182.666 199.6 183.299 199.74 183.859 200.02C184.432 200.3 184.992 200.687 185.539 201.18L187.499 198.92C187.179 198.6 186.832 198.307 186.459 198.04C186.086 197.773 185.679 197.547 185.239 197.36C184.799 197.173 184.306 197.027 183.759 196.92C183.226 196.813 182.632 196.76 181.979 196.76C180.899 196.76 179.912 196.953 179.019 197.34C178.126 197.713 177.359 198.233 176.719 198.9C176.079 199.553 175.579 200.32 175.219 201.2C174.859 202.067 174.679 203 174.679 204V204.04C174.679 205.04 174.859 205.98 175.219 206.86C175.579 207.74 176.079 208.507 176.719 209.16C177.359 209.8 178.119 210.307 178.999 210.68C179.879 211.053 180.832 211.24 181.859 211.24C182.539 211.24 183.152 211.18 183.699 211.06C184.246 210.953 184.746 210.793 185.199 210.58C185.666 210.353 186.092 210.087 186.479 209.78C186.866 209.473 187.239 209.127 187.599 208.74ZM202.045 204.9V197H198.965V205.02C198.965 206.14 198.698 206.98 198.165 207.54C197.631 208.1 196.891 208.38 195.945 208.38C194.998 208.38 194.258 208.093 193.725 207.52C193.191 206.933 192.925 206.067 192.925 204.92V197H189.845V205C189.845 207.067 190.385 208.62 191.465 209.66C192.545 210.7 194.025 211.22 195.905 211.22C196.838 211.22 197.685 211.093 198.445 210.84C199.205 210.573 199.851 210.18 200.385 209.66C200.918 209.127 201.325 208.467 201.605 207.68C201.898 206.893 202.045 205.967 202.045 204.9ZM215.242 211V208.2H208.262V197H205.182V211H215.242ZM231.825 204V203.96C231.825 202.96 231.638 202.027 231.265 201.16C230.905 200.28 230.391 199.52 229.725 198.88C229.071 198.227 228.291 197.713 227.385 197.34C226.478 196.953 225.485 196.76 224.405 196.76C223.325 196.76 222.325 196.953 221.405 197.34C220.498 197.713 219.711 198.233 219.045 198.9C218.391 199.553 217.878 200.32 217.505 201.2C217.131 202.067 216.945 203 216.945 204V204.04C216.945 205.04 217.125 205.98 217.485 206.86C217.858 207.727 218.371 208.487 219.025 209.14C219.691 209.78 220.478 210.293 221.385 210.68C222.291 211.053 223.285 211.24 224.365 211.24C225.445 211.24 226.438 211.053 227.345 210.68C228.265 210.293 229.051 209.773 229.705 209.12C230.371 208.453 230.891 207.687 231.265 206.82C231.638 205.94 231.825 205 231.825 204ZM228.605 204.04C228.605 204.64 228.498 205.207 228.285 205.74C228.085 206.26 227.798 206.72 227.425 207.12C227.065 207.52 226.625 207.833 226.105 208.06C225.585 208.287 225.018 208.4 224.405 208.4C223.778 208.4 223.205 208.287 222.685 208.06C222.178 207.82 221.731 207.5 221.345 207.1C220.971 206.7 220.678 206.233 220.465 205.7C220.265 205.167 220.165 204.6 220.165 204V203.96C220.165 203.36 220.265 202.8 220.465 202.28C220.678 201.747 220.965 201.28 221.325 200.88C221.698 200.48 222.138 200.167 222.645 199.94C223.165 199.713 223.738 199.6 224.365 199.6C224.978 199.6 225.545 199.72 226.065 199.96C226.585 200.187 227.031 200.5 227.405 200.9C227.791 201.3 228.085 201.767 228.285 202.3C228.498 202.833 228.605 203.4 228.605 204V204.04ZM244.677 206.86V206.82C244.677 206.207 244.577 205.68 244.377 205.24C244.19 204.8 243.904 204.42 243.517 204.1C243.144 203.767 242.677 203.487 242.117 203.26C241.57 203.02 240.944 202.807 240.237 202.62C239.637 202.46 239.137 202.32 238.737 202.2C238.35 202.08 238.044 201.953 237.817 201.82C237.59 201.687 237.43 201.54 237.337 201.38C237.257 201.207 237.217 201.007 237.217 200.78V200.74C237.217 200.393 237.364 200.107 237.657 199.88C237.964 199.64 238.417 199.52 239.017 199.52C239.617 199.52 240.217 199.647 240.817 199.9C241.417 200.14 242.03 200.473 242.657 200.9L244.257 198.58C243.537 198.007 242.744 197.567 241.877 197.26C241.024 196.953 240.084 196.8 239.057 196.8C238.337 196.8 237.677 196.9 237.077 197.1C236.477 197.3 235.957 197.587 235.517 197.96C235.09 198.333 234.757 198.78 234.517 199.3C234.277 199.807 234.157 200.38 234.157 201.02V201.06C234.157 201.753 234.264 202.333 234.477 202.8C234.704 203.267 235.017 203.66 235.417 203.98C235.817 204.287 236.304 204.547 236.877 204.76C237.45 204.973 238.09 205.167 238.797 205.34C239.384 205.487 239.857 205.627 240.217 205.76C240.59 205.893 240.877 206.027 241.077 206.16C241.29 206.293 241.43 206.44 241.497 206.6C241.577 206.747 241.617 206.92 241.617 207.12V207.16C241.617 207.573 241.437 207.9 241.077 208.14C240.73 208.367 240.237 208.48 239.597 208.48C238.797 208.48 238.057 208.327 237.377 208.02C236.71 207.713 236.057 207.3 235.417 206.78L233.597 208.96C234.437 209.72 235.37 210.287 236.397 210.66C237.424 211.02 238.47 211.2 239.537 211.2C240.297 211.2 240.99 211.107 241.617 210.92C242.244 210.72 242.784 210.44 243.237 210.08C243.69 209.707 244.044 209.253 244.297 208.72C244.55 208.173 244.677 207.553 244.677 206.86ZM264.006 211V208.26H256.406V205.32H263.006V202.58H256.406V199.74H263.906V197H253.346V211H264.006ZM276.804 211V208.2H269.824V197H266.744V211H276.804ZM289.787 211V208.26H282.187V205.32H288.787V202.58H282.187V199.74H289.687V197H279.127V211H289.787ZM285.047 195.9L287.607 193.5L284.987 192.36L282.727 195.9H285.047ZM303.126 199.84V197H291.526V199.84H295.786V211H298.866V199.84H303.126ZM317.594 211L314.174 206C315.068 205.667 315.788 205.147 316.334 204.44C316.894 203.72 317.174 202.793 317.174 201.66V201.62C317.174 200.167 316.708 199.033 315.774 198.22C314.854 197.407 313.561 197 311.894 197H305.494V211H308.574V206.52H310.994L313.994 211H317.594ZM314.054 201.82C314.054 202.42 313.848 202.9 313.434 203.26C313.034 203.62 312.454 203.8 311.694 203.8H308.574V199.78H311.634C312.394 199.78 312.988 199.947 313.414 200.28C313.841 200.613 314.054 201.113 314.054 201.78V201.82ZM323.168 211V197H320.088V211H323.168ZM338.966 208.74L337.006 206.76C336.46 207.267 335.906 207.667 335.346 207.96C334.8 208.253 334.126 208.4 333.326 208.4C332.726 208.4 332.173 208.287 331.666 208.06C331.173 207.82 330.746 207.5 330.386 207.1C330.04 206.7 329.766 206.233 329.566 205.7C329.366 205.167 329.266 204.6 329.266 204V203.96C329.266 203.36 329.366 202.8 329.566 202.28C329.766 201.747 330.046 201.28 330.406 200.88C330.766 200.48 331.193 200.167 331.686 199.94C332.193 199.713 332.74 199.6 333.326 199.6C334.033 199.6 334.666 199.74 335.226 200.02C335.8 200.3 336.36 200.687 336.906 201.18L338.866 198.92C338.546 198.6 338.2 198.307 337.826 198.04C337.453 197.773 337.046 197.547 336.606 197.36C336.166 197.173 335.673 197.027 335.126 196.92C334.593 196.813 334 196.76 333.346 196.76C332.266 196.76 331.28 196.953 330.386 197.34C329.493 197.713 328.726 198.233 328.086 198.9C327.446 199.553 326.946 200.32 326.586 201.2C326.226 202.067 326.046 203 326.046 204V204.04C326.046 205.04 326.226 205.98 326.586 206.86C326.946 207.74 327.446 208.507 328.086 209.16C328.726 209.8 329.486 210.307 330.366 210.68C331.246 211.053 332.2 211.24 333.226 211.24C333.906 211.24 334.52 211.18 335.066 211.06C335.613 210.953 336.113 210.793 336.566 210.58C337.033 210.353 337.46 210.087 337.846 209.78C338.233 209.473 338.606 209.127 338.966 208.74ZM355.692 204V203.96C355.692 202.96 355.505 202.027 355.132 201.16C354.772 200.28 354.259 199.52 353.592 198.88C352.939 198.227 352.159 197.713 351.252 197.34C350.345 196.953 349.352 196.76 348.272 196.76C347.192 196.76 346.192 196.953 345.272 197.34C344.365 197.713 343.579 198.233 342.912 198.9C342.259 199.553 341.745 200.32 341.372 201.2C340.999 202.067 340.812 203 340.812 204V204.04C340.812 205.04 340.992 205.98 341.352 206.86C341.725 207.727 342.239 208.487 342.892 209.14C343.559 209.78 344.345 210.293 345.252 210.68C346.159 211.053 347.152 211.24 348.232 211.24C349.312 211.24 350.305 211.053 351.212 210.68C352.132 210.293 352.919 209.773 353.572 209.12C354.239 208.453 354.759 207.687 355.132 206.82C355.505 205.94 355.692 205 355.692 204ZM352.472 204.04C352.472 204.64 352.365 205.207 352.152 205.74C351.952 206.26 351.665 206.72 351.292 207.12C350.932 207.52 350.492 207.833 349.972 208.06C349.452 208.287 348.885 208.4 348.272 208.4C347.645 208.4 347.072 208.287 346.552 208.06C346.045 207.82 345.599 207.5 345.212 207.1C344.839 206.7 344.545 206.233 344.332 205.7C344.132 205.167 344.032 204.6 344.032 204V203.96C344.032 203.36 344.132 202.8 344.332 202.28C344.545 201.747 344.832 201.28 345.192 200.88C345.565 200.48 346.005 200.167 346.512 199.94C347.032 199.713 347.605 199.6 348.232 199.6C348.845 199.6 349.412 199.72 349.932 199.96C350.452 200.187 350.899 200.5 351.272 200.9C351.659 201.3 351.952 201.767 352.152 202.3C352.365 202.833 352.472 203.4 352.472 204V204.04ZM368.544 206.86V206.82C368.544 206.207 368.444 205.68 368.244 205.24C368.057 204.8 367.771 204.42 367.384 204.1C367.011 203.767 366.544 203.487 365.984 203.26C365.437 203.02 364.811 202.807 364.104 202.62C363.504 202.46 363.004 202.32 362.604 202.2C362.217 202.08 361.911 201.953 361.684 201.82C361.457 201.687 361.297 201.54 361.204 201.38C361.124 201.207 361.084 201.007 361.084 200.78V200.74C361.084 200.393 361.231 200.107 361.524 199.88C361.831 199.64 362.284 199.52 362.884 199.52C363.484 199.52 364.084 199.647 364.684 199.9C365.284 200.14 365.897 200.473 366.524 200.9L368.124 198.58C367.404 198.007 366.611 197.567 365.744 197.26C364.891 196.953 363.951 196.8 362.924 196.8C362.204 196.8 361.544 196.9 360.944 197.1C360.344 197.3 359.824 197.587 359.384 197.96C358.957 198.333 358.624 198.78 358.384 199.3C358.144 199.807 358.024 200.38 358.024 201.02V201.06C358.024 201.753 358.131 202.333 358.344 202.8C358.571 203.267 358.884 203.66 359.284 203.98C359.684 204.287 360.171 204.547 360.744 204.76C361.317 204.973 361.957 205.167 362.664 205.34C363.251 205.487 363.724 205.627 364.084 205.76C364.457 205.893 364.744 206.027 364.944 206.16C365.157 206.293 365.297 206.44 365.364 206.6C365.444 206.747 365.484 206.92 365.484 207.12V207.16C365.484 207.573 365.304 207.9 364.944 208.14C364.597 208.367 364.104 208.48 363.464 208.48C362.664 208.48 361.924 208.327 361.244 208.02C360.577 207.713 359.924 207.3 359.284 206.78L357.464 208.96C358.304 209.72 359.237 210.287 360.264 210.66C361.291 211.02 362.337 211.2 363.404 211.2C364.164 211.2 364.857 211.107 365.484 210.92C366.111 210.72 366.651 210.44 367.104 210.08C367.557 209.707 367.911 209.253 368.164 208.72C368.417 208.173 368.544 207.553 368.544 206.86Z" fill="#FAFAFA"/>
</svg>
