<svg width="551" height="552" viewBox="0 0 551 552" fill="none" xmlns="http://www.w3.org/2000/svg">
<path d="M340.664 398.202C295.903 423.718 244.869 446.882 199.293 423.386C150.22 398.087 123.766 342.715 124.531 286.776C125.284 231.687 153.322 176.89 202.972 154.261C246.913 134.233 290.084 168.631 332.061 192.189C376.43 217.088 436.869 235.251 439.019 286.728C441.242 339.969 386.585 372.024 340.664 398.202Z" fill="#2DBAD4"/>
<path d="M184.019 262.051L169.635 262.089L169.607 273.202L183.99 273.165L183.952 287.66L195.236 287.631L195.274 273.136L209.657 273.098L209.686 261.985L195.303 262.022L195.34 247.527L184.056 247.556L184.019 262.051ZM239.648 249.747C241.873 249.742 243.672 250.354 245.047 251.586C246.421 252.817 247.105 254.641 247.099 257.056C247.095 258.238 246.907 259.339 246.534 260.36C246.213 261.327 245.654 262.348 244.857 263.424C244.113 264.446 243.13 265.549 241.908 266.733C240.687 267.864 239.2 269.156 237.448 270.61L218.893 286.04L218.867 295.865L260.03 295.758L260.058 285.047L235.821 285.11L244.899 278C247.341 276.061 249.491 274.284 251.349 272.668C253.208 270.999 254.722 269.331 255.892 267.664C257.114 265.996 258.02 264.249 258.607 262.422C259.248 260.541 259.571 258.42 259.577 256.058C259.584 253.427 259.14 251.039 258.245 248.894C257.403 246.749 256.136 244.927 254.445 243.428C252.806 241.875 250.796 240.699 248.414 239.9C246.086 239.047 243.438 238.624 240.471 238.632C237.981 238.639 235.756 238.913 233.794 239.455C231.833 239.943 230.03 240.699 228.385 241.724C226.793 242.694 225.28 243.906 223.846 245.359C222.465 246.812 221.083 248.48 219.701 250.363L228.265 257.347C230.337 254.764 232.197 252.854 233.842 251.615C235.54 250.375 237.476 249.753 239.648 249.747ZM271.71 267.14L278.77 271.873C280.096 271.279 281.528 270.792 283.065 270.412C284.656 269.978 286.325 269.759 288.073 269.755C291.093 269.747 293.475 270.412 295.22 271.749C297.017 273.087 297.913 274.991 297.907 277.46C297.9 280.037 297.047 281.999 295.349 283.345C293.703 284.692 291.45 285.369 288.589 285.376C286.099 285.383 283.796 284.852 281.68 283.783C279.563 282.715 277.448 281.217 275.334 279.29L267.921 288.248C270.616 290.872 273.63 292.931 276.964 294.426C280.297 295.92 284.216 296.662 288.719 296.65C291.897 296.642 294.786 296.178 297.384 295.259C300.035 294.339 302.263 293.045 304.069 291.376C305.928 289.653 307.363 287.582 308.376 285.164C309.389 282.745 309.899 280.033 309.907 277.026C309.915 273.805 309.419 271.068 308.418 268.816C307.418 266.51 306.045 264.635 304.301 263.19C302.556 261.745 300.493 260.676 298.111 259.985C295.782 259.293 293.24 258.95 290.485 258.957C288.949 258.961 287.624 259.072 286.511 259.29C285.398 259.454 284.285 259.671 283.172 259.943L283.833 250.197L307.513 250.136L307.542 239.264L273.371 239.352L271.71 267.14ZM368.33 267.212C368.34 263.131 367.767 259.321 366.611 255.781C365.455 252.24 363.794 249.158 361.629 246.533C359.517 243.907 356.926 241.874 353.857 240.432C350.841 238.937 347.479 238.194 343.771 238.204C340.062 238.213 336.67 238.974 333.593 240.485C330.57 241.996 327.969 244.07 325.79 246.706C323.611 249.342 321.908 252.46 320.68 256.061C319.505 259.607 318.912 263.42 318.902 267.501C318.891 271.634 319.464 275.472 320.62 279.012C321.777 282.499 323.411 285.555 325.523 288.18C327.689 290.805 330.279 292.865 333.295 294.36C336.364 295.802 339.752 296.518 343.461 296.508C347.169 296.499 350.535 295.738 353.559 294.227C356.635 292.716 359.263 290.642 361.442 288.006C363.621 285.37 365.297 282.279 366.472 278.732C367.7 275.186 368.319 271.345 368.33 267.212ZM355.774 267.405C355.767 269.982 355.47 272.372 354.881 274.575C354.346 276.723 353.546 278.605 352.482 280.218C351.419 281.831 350.144 283.096 348.658 284.013C347.173 284.876 345.503 285.309 343.649 285.314C341.795 285.319 340.1 284.867 338.566 283.958C337.085 283.05 335.817 281.791 334.762 280.183C333.707 278.575 332.89 276.672 332.313 274.472C331.736 272.272 331.451 269.884 331.458 267.307C331.465 264.73 331.736 262.34 332.271 260.138C332.86 257.935 333.686 256.054 334.749 254.494C335.813 252.881 337.087 251.643 338.573 250.78C340.059 249.863 341.729 249.403 343.583 249.398C345.437 249.393 347.105 249.845 348.586 250.754C350.12 251.663 351.414 252.921 352.47 254.529C353.525 256.137 354.341 258.04 354.918 260.24C355.495 262.44 355.78 264.828 355.774 267.405ZM227.762 319.88L227.762 319.839C227.764 319.115 227.639 318.457 227.389 317.867C227.152 317.264 226.803 316.748 226.34 316.32C225.891 315.892 225.336 315.564 224.674 315.338C224.026 315.098 223.285 314.979 222.45 314.981L216.768 314.996L216.732 329.089L219.791 329.081L219.802 324.853L222.127 324.847C222.908 324.845 223.637 324.742 224.313 324.539C225.002 324.323 225.599 324.006 226.103 323.588C226.621 323.171 227.026 322.653 227.319 322.035C227.612 321.417 227.759 320.698 227.762 319.88ZM224.662 319.948C224.661 320.552 224.447 321.063 224.023 321.48C223.598 321.884 223.001 322.087 222.233 322.089L219.809 322.095L219.821 317.786L222.185 317.78C222.953 317.778 223.555 317.958 223.991 318.319C224.44 318.68 224.664 319.21 224.662 319.908L224.662 319.948ZM244.185 321.971L244.185 321.931C244.188 320.924 244.005 319.985 243.636 319.114C243.281 318.229 242.773 317.465 242.112 316.823C241.465 316.167 240.692 315.652 239.792 315.279C238.892 314.892 237.906 314.7 236.833 314.702C235.761 314.705 234.767 314.902 233.852 315.294C232.95 315.672 232.168 316.198 231.504 316.87C230.853 317.53 230.341 318.303 229.968 319.19C229.595 320.063 229.407 321.003 229.404 322.01L229.404 322.05C229.402 323.056 229.578 324.002 229.933 324.887C230.302 325.759 230.81 326.522 231.457 327.178C232.118 327.821 232.898 328.336 233.797 328.722C234.697 329.096 235.683 329.281 236.756 329.279C237.829 329.276 238.816 329.085 239.717 328.707C240.632 328.316 241.415 327.79 242.066 327.131C242.73 326.458 243.248 325.685 243.621 324.811C243.994 323.925 244.182 322.978 244.185 321.971ZM240.986 322.02C240.985 322.624 240.877 323.195 240.664 323.732C240.464 324.256 240.178 324.72 239.806 325.123C239.447 325.527 239.01 325.843 238.492 326.073C237.975 326.302 237.412 326.418 236.803 326.42C236.18 326.421 235.611 326.309 235.095 326.082C234.593 325.841 234.15 325.52 233.767 325.119C233.397 324.717 233.107 324.248 232.896 323.712C232.699 323.175 232.601 322.605 232.603 322.001L232.603 321.961C232.604 321.357 232.705 320.793 232.905 320.269C233.119 319.732 233.405 319.261 233.763 318.858C234.135 318.454 234.573 318.137 235.077 317.908C235.594 317.678 236.164 317.563 236.786 317.561C237.395 317.56 237.958 317.679 238.474 317.919C238.99 318.146 239.433 318.46 239.802 318.862C240.186 319.264 240.476 319.733 240.673 320.269C240.883 320.805 240.988 321.376 240.986 321.98L240.986 322.02ZM256.944 324.817L256.944 324.777C256.945 324.16 256.847 323.63 256.65 323.187C256.466 322.745 256.182 322.363 255.799 322.042C255.429 321.707 254.966 321.427 254.41 321.2C253.868 320.96 253.246 320.747 252.544 320.561C251.949 320.401 251.453 320.261 251.056 320.142C250.672 320.022 250.367 319.895 250.143 319.761C249.918 319.628 249.759 319.481 249.667 319.32C249.588 319.145 249.549 318.944 249.549 318.716L249.549 318.676C249.55 318.327 249.697 318.038 249.989 317.809C250.294 317.567 250.745 317.445 251.341 317.443C251.937 317.442 252.532 317.568 253.128 317.821C253.723 318.061 254.331 318.395 254.953 318.823L256.548 316.483C255.834 315.908 255.047 315.467 254.187 315.161C253.341 314.854 252.407 314.702 251.387 314.705C250.672 314.707 250.016 314.809 249.42 315.012C248.823 315.215 248.306 315.505 247.868 315.882C247.443 316.259 247.111 316.709 246.871 317.233C246.632 317.744 246.511 318.321 246.509 318.966L246.509 319.006C246.507 319.704 246.612 320.287 246.822 320.757C247.046 321.226 247.357 321.621 247.753 321.942C248.15 322.25 248.632 322.51 249.201 322.723C249.77 322.937 250.405 323.13 251.107 323.302C251.689 323.448 252.159 323.588 252.516 323.721C252.887 323.855 253.171 323.988 253.37 324.122C253.581 324.256 253.72 324.403 253.786 324.564C253.865 324.711 253.904 324.885 253.903 325.087L253.903 325.127C253.902 325.543 253.723 325.872 253.364 326.115C253.019 326.344 252.529 326.459 251.893 326.461C251.099 326.463 250.364 326.311 249.689 326.004C249.028 325.697 248.38 325.282 247.746 324.76L245.932 326.96C246.765 327.723 247.69 328.291 248.709 328.664C249.728 329.023 250.767 329.202 251.827 329.199C252.582 329.197 253.271 329.102 253.893 328.912C254.516 328.709 255.054 328.426 255.505 328.062C255.956 327.685 256.308 327.228 256.561 326.691C256.814 326.14 256.942 325.515 256.944 324.817ZM270.146 317.717L270.154 314.858L258.631 314.888L258.624 317.746L262.855 317.735L262.826 328.969L265.886 328.962L265.915 317.727L270.146 317.717ZM286.653 321.861L286.653 321.821C286.656 320.814 286.473 319.875 286.104 319.004C285.749 318.119 285.241 317.355 284.58 316.713C283.933 316.057 283.16 315.542 282.26 315.169C281.36 314.782 280.374 314.59 279.301 314.592C278.229 314.595 277.235 314.792 276.32 315.184C275.418 315.562 274.636 316.088 273.972 316.76C273.321 317.42 272.809 318.193 272.436 319.08C272.063 319.953 271.875 320.893 271.872 321.9L271.872 321.94C271.87 322.947 272.046 323.892 272.401 324.777C272.77 325.649 273.278 326.412 273.925 327.068C274.586 327.711 275.366 328.226 276.265 328.613C277.165 328.986 278.151 329.171 279.224 329.169C280.297 329.166 281.284 328.975 282.185 328.597C283.1 328.206 283.883 327.68 284.534 327.021C285.198 326.348 285.716 325.575 286.089 324.702C286.462 323.815 286.65 322.868 286.653 321.861ZM283.454 321.91C283.453 322.514 283.345 323.085 283.132 323.622C282.932 324.146 282.646 324.61 282.274 325.013C281.916 325.417 281.478 325.734 280.961 325.963C280.443 326.193 279.88 326.308 279.271 326.31C278.649 326.311 278.079 326.199 277.563 325.972C277.061 325.732 276.618 325.411 276.235 325.009C275.865 324.607 275.575 324.138 275.364 323.602C275.167 323.066 275.069 322.495 275.071 321.891L275.071 321.851C275.073 321.247 275.173 320.683 275.373 320.159C275.587 319.622 275.873 319.151 276.231 318.748C276.603 318.344 277.041 318.028 277.545 317.798C278.062 317.569 278.632 317.453 279.254 317.451C279.864 317.45 280.426 317.569 280.942 317.809C281.458 318.036 281.901 318.35 282.271 318.752C282.654 319.154 282.944 319.623 283.141 320.159C283.352 320.696 283.456 321.266 283.454 321.87L283.454 321.91ZM299.412 324.707L299.412 324.667C299.413 324.05 299.315 323.52 299.118 323.077C298.934 322.635 298.65 322.253 298.267 321.932C297.897 321.597 297.434 321.317 296.878 321.09C296.336 320.85 295.714 320.637 295.012 320.451C294.417 320.291 293.921 320.151 293.524 320.032C293.14 319.912 292.836 319.785 292.611 319.652C292.386 319.518 292.227 319.371 292.135 319.21C292.056 319.036 292.017 318.834 292.017 318.606L292.018 318.566C292.018 318.217 292.165 317.928 292.457 317.699C292.762 317.457 293.213 317.335 293.809 317.333C294.405 317.332 295 317.458 295.596 317.711C296.191 317.951 296.799 318.285 297.421 318.713L299.016 316.373C298.302 315.798 297.516 315.357 296.655 315.051C295.809 314.744 294.875 314.592 293.856 314.595C293.14 314.597 292.485 314.699 291.888 314.902C291.291 315.105 290.774 315.395 290.336 315.772C289.911 316.149 289.579 316.599 289.339 317.123C289.1 317.634 288.979 318.211 288.977 318.856L288.977 318.896C288.975 319.594 289.08 320.177 289.291 320.647C289.514 321.116 289.825 321.511 290.221 321.832C290.618 322.14 291.1 322.4 291.669 322.613C292.238 322.827 292.874 323.02 293.575 323.192C294.157 323.338 294.627 323.478 294.984 323.611C295.355 323.745 295.639 323.878 295.838 324.012C296.049 324.146 296.188 324.293 296.254 324.454C296.333 324.601 296.372 324.776 296.372 324.977L296.371 325.017C296.37 325.433 296.191 325.763 295.832 326.005C295.488 326.234 294.997 326.349 294.361 326.351C293.567 326.353 292.832 326.201 292.157 325.894C291.496 325.587 290.848 325.172 290.214 324.651L288.4 326.85C289.233 327.613 290.158 328.181 291.177 328.554C292.196 328.914 293.235 329.092 294.295 329.089C295.05 329.087 295.739 328.992 296.362 328.802C296.985 328.599 297.522 328.316 297.973 327.952C298.424 327.575 298.776 327.118 299.029 326.581C299.282 326.03 299.41 325.405 299.412 324.707ZM320.844 321.773L320.844 321.733C320.847 320.739 320.67 319.82 320.315 318.976C319.96 318.118 319.452 317.374 318.791 316.745C318.144 316.116 317.364 315.628 316.451 315.281C315.551 314.921 314.558 314.743 313.472 314.746L308.049 314.76L308.012 328.852L313.436 328.838C314.522 328.836 315.515 328.652 316.417 328.287C317.332 327.922 318.114 327.424 318.765 326.791C319.429 326.159 319.941 325.413 320.3 324.553C320.66 323.693 320.841 322.766 320.844 321.773ZM317.645 321.821C317.644 322.452 317.536 323.023 317.323 323.534C317.123 324.044 316.837 324.488 316.465 324.864C316.107 325.241 315.669 325.531 315.152 325.734C314.635 325.936 314.065 326.038 313.443 326.04L311.079 326.046L311.101 317.55L313.465 317.544C314.087 317.542 314.657 317.648 315.172 317.862C315.688 318.062 316.125 318.349 316.481 318.724C316.851 319.099 317.135 319.548 317.332 320.071C317.543 320.594 317.647 321.164 317.646 321.781L317.645 321.821ZM334.141 328.785L334.148 326.027L326.599 326.046L326.606 323.087L333.162 323.07L333.169 320.312L326.613 320.329L326.621 317.47L334.071 317.45L334.078 314.692L323.589 314.719L323.552 328.812L334.141 328.785ZM202.277 351.272L196.353 337.094L193.532 337.101L187.536 351.31L190.655 351.302L191.934 348.138L197.815 348.123L199.078 351.28L202.277 351.272ZM196.729 345.387L193.034 345.397L194.894 340.822L196.729 345.387ZM216.253 347.37L216.253 347.33C216.256 346.391 216.026 345.66 215.564 345.137C215.102 344.602 214.467 344.181 213.66 343.874C213.912 343.739 214.144 343.577 214.357 343.389C214.582 343.201 214.775 342.985 214.934 342.743C215.107 342.488 215.24 342.206 215.334 341.897C215.441 341.588 215.494 341.232 215.496 340.829L215.496 340.789C215.499 339.675 215.09 338.79 214.271 338.135C213.465 337.479 212.346 337.153 210.916 337.157L204.459 337.174L204.423 351.266L211.038 351.249C211.82 351.247 212.529 351.165 213.165 351.002C213.814 350.839 214.364 350.596 214.815 350.273C215.28 349.95 215.632 349.546 215.871 349.062C216.124 348.579 216.252 348.015 216.253 347.37ZM212.455 341.361C212.453 341.884 212.254 342.267 211.856 342.51C211.458 342.739 210.921 342.854 210.246 342.856L207.425 342.863L207.432 339.884L210.452 339.876C211.101 339.874 211.597 340 211.941 340.255C212.285 340.495 212.456 340.85 212.455 341.32L212.455 341.361ZM213.215 346.996C213.213 347.519 213.02 347.909 212.636 348.165C212.251 348.407 211.721 348.53 211.045 348.531L207.41 348.541L207.418 345.44L210.954 345.431C211.749 345.429 212.325 345.569 212.681 345.849C213.038 346.117 213.216 346.486 213.215 346.955L213.215 346.996ZM232.309 351.194L226.386 337.016L223.565 337.023L217.568 351.232L220.687 351.224L221.967 348.06L227.847 348.045L229.11 351.202L232.309 351.194ZM226.762 345.31L223.066 345.319L224.926 340.744L226.762 345.31ZM244.518 346.995L244.518 346.955C244.52 346.338 244.422 345.808 244.225 345.365C244.04 344.923 243.756 344.541 243.373 344.22C243.003 343.885 242.54 343.605 241.985 343.378C241.442 343.138 240.82 342.925 240.119 342.738C239.523 342.579 239.027 342.439 238.63 342.32C238.246 342.2 237.942 342.073 237.717 341.939C237.492 341.806 237.334 341.659 237.242 341.498C237.163 341.323 237.123 341.122 237.124 340.894L237.124 340.854C237.125 340.505 237.271 340.216 237.563 339.987C237.869 339.745 238.319 339.623 238.915 339.621C239.511 339.619 240.107 339.745 240.702 339.999C241.298 340.239 241.906 340.573 242.527 341.001L244.123 338.661C243.409 338.086 242.622 337.645 241.762 337.339C240.915 337.032 239.982 336.88 238.962 336.883C238.247 336.885 237.591 336.987 236.995 337.19C236.398 337.393 235.881 337.683 235.443 338.06C235.018 338.437 234.686 338.887 234.446 339.411C234.206 339.922 234.086 340.499 234.084 341.143L234.084 341.184C234.082 341.882 234.186 342.465 234.397 342.934C234.621 343.404 234.931 343.799 235.328 344.12C235.724 344.428 236.207 344.688 236.776 344.901C237.345 345.115 237.98 345.308 238.682 345.48C239.264 345.626 239.734 345.766 240.091 345.899C240.461 346.033 240.746 346.166 240.944 346.3C241.156 346.433 241.294 346.581 241.36 346.742C241.439 346.889 241.479 347.063 241.478 347.265L241.478 347.305C241.477 347.721 241.297 348.05 240.939 348.293C240.594 348.522 240.104 348.637 239.468 348.639C238.673 348.641 237.939 348.489 237.264 348.182C236.603 347.875 235.955 347.46 235.32 346.938L233.507 349.138C234.339 349.9 235.265 350.469 236.284 350.842C237.303 351.201 238.342 351.38 239.401 351.377C240.156 351.375 240.845 351.28 241.468 351.09C242.091 350.887 242.628 350.604 243.079 350.24C243.531 349.863 243.883 349.406 244.136 348.868C244.389 348.318 244.516 347.693 244.518 346.995ZM257.721 339.894L257.728 337.036L246.206 337.065L246.198 339.924L250.43 339.913L250.401 351.147L253.46 351.139L253.489 339.905L257.721 339.894ZM270.633 351.095L270.641 348.337L263.091 348.356L263.099 345.397L269.655 345.38L269.662 342.622L263.106 342.639L263.114 339.78L270.563 339.761L270.571 337.002L260.081 337.03L260.045 351.122L270.633 351.095ZM285.577 348.781L283.635 346.793C283.091 347.305 282.54 347.709 281.983 348.006C281.44 348.302 280.77 348.452 279.976 348.454C279.38 348.455 278.83 348.342 278.328 348.116C277.838 347.875 277.415 347.554 277.059 347.153C276.715 346.751 276.445 346.282 276.248 345.745C276.051 345.209 275.953 344.639 275.954 344.035L275.954 343.995C275.956 343.391 276.057 342.827 276.257 342.303C276.457 341.765 276.736 341.295 277.095 340.891C277.454 340.488 277.878 340.171 278.369 339.942C278.873 339.712 279.416 339.597 279.999 339.595C280.701 339.593 281.329 339.733 281.885 340.013C282.454 340.294 283.009 340.681 283.551 341.177L285.503 338.896C285.186 338.575 284.843 338.281 284.473 338.013C284.103 337.746 283.699 337.519 283.263 337.332C282.826 337.145 282.336 336.999 281.794 336.893C281.264 336.787 280.675 336.735 280.026 336.736C278.953 336.739 277.973 336.936 277.084 337.328C276.196 337.706 275.433 338.231 274.796 338.904C274.158 339.563 273.659 340.336 273.3 341.223C272.94 342.097 272.759 343.037 272.756 344.043L272.756 344.083C272.753 345.09 272.93 346.036 273.285 346.921C273.64 347.806 274.135 348.576 274.769 349.232C275.403 349.875 276.156 350.383 277.03 350.756C277.903 351.13 278.849 351.315 279.869 351.313C280.544 351.311 281.154 351.249 281.697 351.127C282.24 351.018 282.738 350.856 283.188 350.64C283.653 350.41 284.077 350.141 284.462 349.831C284.847 349.521 285.219 349.172 285.577 348.781ZM291.219 351.042L291.255 336.949L288.196 336.957L288.159 351.05L291.219 351.042ZM308.601 350.997L308.637 336.904L305.339 336.912L301.669 342.881L298.029 336.931L294.731 336.94L294.694 351.033L297.694 351.025L297.718 341.885L301.576 347.834L301.656 347.834L305.585 341.804L305.561 351.005L308.601 350.997ZM322.53 350.961L322.537 348.203L314.988 348.222L314.996 345.263L321.552 345.246L321.559 342.487L315.003 342.504L315.01 339.646L322.46 339.626L322.467 336.868L311.978 336.895L311.941 350.988L322.53 350.961ZM337.607 350.922L337.644 336.829L334.624 336.837L334.602 345.514L328.108 336.853L325.287 336.861L325.25 350.954L328.27 350.946L328.293 341.987L335.005 350.928L337.607 350.922ZM351.504 339.652L351.511 336.793L339.989 336.823L339.981 339.682L344.213 339.671L344.184 350.905L347.243 350.897L347.272 339.663L351.504 339.652ZM368.01 343.797L368.011 343.756C368.013 342.75 367.83 341.811 367.462 340.939C367.106 340.054 366.598 339.291 365.938 338.648C365.291 337.992 364.517 337.477 363.618 337.104C362.718 336.717 361.732 336.525 360.659 336.528C359.586 336.53 358.592 336.728 357.677 337.119C356.776 337.497 355.993 338.023 355.329 338.696C354.679 339.355 354.167 340.128 353.793 341.015C353.42 341.888 353.233 342.828 353.23 343.835L353.23 343.875C353.227 344.882 353.404 345.828 353.759 346.712C354.127 347.584 354.635 348.348 355.283 349.004C355.943 349.646 356.723 350.161 357.623 350.548C358.522 350.921 359.509 351.107 360.581 351.104C361.654 351.101 362.641 350.911 363.543 350.532C364.458 350.141 365.241 349.615 365.891 348.956C366.555 348.283 367.074 347.51 367.447 346.637C367.82 345.75 368.008 344.803 368.01 343.797ZM364.812 343.845C364.81 344.449 364.703 345.02 364.49 345.557C364.29 346.081 364.004 346.545 363.632 346.949C363.273 347.352 362.835 347.669 362.318 347.898C361.801 348.128 361.238 348.243 360.629 348.245C360.006 348.246 359.437 348.134 358.921 347.907C358.418 347.667 357.975 347.346 357.592 346.944C357.223 346.542 356.932 346.073 356.722 345.537C356.525 345.001 356.427 344.431 356.428 343.827L356.429 343.786C356.43 343.182 356.531 342.618 356.731 342.094C356.944 341.557 357.23 341.086 357.589 340.683C357.961 340.279 358.399 339.963 358.902 339.733C359.42 339.504 359.989 339.388 360.612 339.387C361.221 339.385 361.784 339.504 362.3 339.745C362.815 339.971 363.258 340.286 363.628 340.687C364.011 341.089 364.301 341.558 364.499 342.094C364.709 342.631 364.814 343.201 364.812 343.805L364.812 343.845Z" fill="#FAFAFA"/>
</svg>
