<svg width="257" height="74" viewBox="0 0 257 74" fill="none" xmlns="http://www.w3.org/2000/svg">
<g clip-path="url(#clip0)">
<path d="M70.0251 68.6667H0.351562V43.5829C0.351562 25.0274 15.1288 9.98511 33.3545 9.98511H99.3127V38.851C99.3127 55.318 86.202 68.6667 70.0251 68.6667Z" fill="#2EB8CD"/>
<path d="M168.716 39.2841C168.63 42.3741 167.27 44.7755 164.212 46.1402C161.841 47.1995 159.364 47.2696 156.877 46.4507C156.596 46.3581 156.51 46.3756 156.461 46.6636C156.237 47.9782 155.984 49.2879 155.762 50.6C155.715 50.8754 155.595 50.9556 155.307 50.9531C153.902 50.9405 152.5 50.933 151.096 50.9556C150.7 50.9631 150.68 50.8103 150.732 50.5224C151.039 48.8196 151.337 47.1143 151.639 45.4091C152.048 43.1128 152.404 40.8066 152.882 38.5204C153.541 35.3653 156.353 33.0465 159.779 32.6884C161.634 32.4956 163.43 32.6158 165.12 33.4171C167.196 34.4012 168.296 36.0238 168.642 38.1297C168.674 38.32 168.701 38.5104 168.714 38.7007C168.726 38.8985 168.716 39.0913 168.716 39.2841ZM163.873 39.234C163.964 36.5922 161.258 35.9512 159.555 36.8502C158.495 37.4086 157.92 38.2975 157.661 39.3793C157.452 40.2607 157.435 41.1371 157.937 41.9459C158.707 43.1854 160.726 43.501 162.116 42.6095C163.39 41.7932 163.818 40.5987 163.873 39.234Z" fill="#2DBAD4"/>
<path d="M189.147 40.406C189.137 37.1357 190.987 34.4187 194.074 33.2468C196.401 32.3629 198.785 32.3379 201.112 33.2018C203.382 34.0456 204.718 35.6683 205.102 37.9169C205.547 40.5237 204.895 42.8574 202.861 44.7605C201.414 46.1127 199.599 46.7538 197.579 46.929C195.747 47.0843 193.98 46.8715 192.367 45.9925C190.458 44.9508 189.491 43.3432 189.215 41.3375C189.169 41.0195 189.166 40.6989 189.147 40.406ZM200.369 39.5771C200.393 38.1748 200.061 37.2759 199.035 36.7901C197.958 36.2793 196.854 36.3394 195.833 36.9854C194.676 37.7166 194.177 38.7908 194.057 40.0429C193.973 40.9118 194.116 41.7356 194.804 42.3892C195.734 43.2756 197.441 43.3658 198.642 42.592C199.909 41.7732 200.327 40.5662 200.369 39.5771Z" fill="#2DBAD4"/>
<path d="M133.64 31.3261C135.096 31.3261 136.557 31.3236 138.013 31.3261C142.955 31.3361 147.189 35.1198 147.41 39.7197C147.435 40.2356 147.435 40.2356 146.872 40.2331C143.75 40.2256 140.626 40.2706 137.507 40.203C132.565 40.0979 128.437 36.2266 128.328 31.6967C128.321 31.3812 128.422 31.3186 128.732 31.3186C130.365 31.3311 132.004 31.3261 133.64 31.3261Z" fill="#2DBAD4"/>
<path d="M133.832 50.5774C132.152 50.5774 130.477 50.5699 128.797 50.5824C128.499 50.5849 128.398 50.5273 128.408 50.2243C128.516 46.2904 131.697 42.7297 135.825 41.9133C136.708 41.7406 137.593 41.6905 138.489 41.6905C141.35 41.688 144.211 41.6955 147.074 41.6805C147.421 41.678 147.512 41.7706 147.502 42.0886C147.404 45.4816 144.914 48.7419 141.502 49.9539C140.319 50.3771 139.106 50.5899 137.839 50.5774C136.501 50.5674 135.168 50.5774 133.832 50.5774Z" fill="#2DBAD4"/>
<path d="M172.227 46.4057C171.525 46.4057 170.822 46.3907 170.123 46.4132C169.801 46.4232 169.762 46.308 169.806 46.0551C170.096 44.3899 170.379 42.7197 170.665 41.052C170.856 39.9402 170.984 38.8159 171.255 37.7216C171.843 35.3377 173.516 33.8353 175.944 33.0265C177.107 32.6383 178.315 32.4931 179.555 32.6108C179.833 32.6358 179.887 32.721 179.843 32.9689C179.641 34.0782 179.454 35.19 179.282 36.3068C179.24 36.5797 179.124 36.6874 178.819 36.7099C177.405 36.8176 176.222 37.8167 175.993 39.1163C175.594 41.3625 175.228 43.6136 174.827 45.8598C174.706 46.5334 174.839 46.3982 174.167 46.4082C173.521 46.4132 172.874 46.4057 172.227 46.4057Z" fill="#2DBAD4"/>
<path d="M182.967 46.4256C182.281 46.4256 181.589 46.4256 180.903 46.4256C180.396 46.4256 180.389 46.4231 180.465 45.9749C180.716 44.485 180.974 42.995 181.228 41.5026C181.688 38.7982 182.15 36.0963 182.598 33.3919C182.642 33.119 182.753 33.0364 183.046 33.0389C184.505 33.0514 185.964 33.0514 187.423 33.0414C187.706 33.0389 187.777 33.114 187.733 33.3719C187.459 34.9244 187.201 36.4795 186.938 38.0345C186.483 40.7264 186.023 43.4157 185.577 46.1101C185.538 46.348 185.462 46.4406 185.196 46.4356C184.453 46.4181 183.71 46.4256 182.967 46.4256Z" fill="#2DBAD4"/>
<path d="M188.397 28.4239C188.345 29.4205 188.035 30.4347 187.009 31.1233C186.296 31.6016 185.484 31.6942 184.652 31.4588C184.067 31.2911 183.668 30.9004 183.501 30.347C183.115 29.095 183.619 27.2195 185.076 26.4657C186.35 25.8072 187.858 26.2579 188.291 27.4348C188.397 27.7178 188.392 28.0132 188.397 28.4239Z" fill="#2DBAD4"/>
<path d="M20.4796 39.1126V34.0775C20.0889 34.6125 19.6168 35.0531 19.0659 35.3993C18.5151 35.7454 17.8209 35.9171 16.9834 35.9171C16.3286 35.9171 15.6934 35.7883 15.0779 35.5337C14.4624 35.2791 13.92 34.8986 13.4451 34.3951C12.9701 33.8916 12.5907 33.2736 12.304 32.5413C12.0174 31.8089 11.874 30.9678 11.874 30.0151V29.9722C11.874 29.0196 12.0174 28.1785 12.304 27.4461C12.5907 26.7137 12.9673 26.0958 13.4338 25.5923C13.9003 25.0888 14.4428 24.7083 15.0554 24.4537C15.6681 24.1991 16.3117 24.0703 16.9806 24.0703C17.8322 24.0703 18.532 24.2391 19.0856 24.5767C19.6365 24.9143 20.1002 25.3091 20.4768 25.7611V24.282H23.6582V39.1126H20.4796ZM20.5217 29.9722C20.5217 29.5002 20.4487 29.0682 20.3025 28.6734C20.1564 28.2815 19.9597 27.9439 19.7151 27.6664C19.4706 27.386 19.184 27.1743 18.858 27.0227C18.5291 26.8739 18.1778 26.7967 17.8012 26.7967C17.4246 26.7967 17.0705 26.8711 16.7445 27.0227C16.4157 27.1715 16.1262 27.386 15.8761 27.6664C15.626 27.9468 15.4264 28.2786 15.2803 28.6648C15.1341 29.051 15.0611 29.4859 15.0611 29.9722V30.0151C15.0611 30.4872 15.1341 30.9192 15.2803 31.314C15.4264 31.7059 15.626 32.0435 15.8761 32.321C16.1262 32.6014 16.4157 32.8131 16.7445 32.9647C17.0733 33.1134 17.4246 33.1907 17.8012 33.1907C18.1778 33.1907 18.5291 33.1163 18.858 32.9647C19.1868 32.8159 19.4706 32.6014 19.7151 32.321C19.9597 32.0406 20.1536 31.7059 20.3025 31.314C20.4515 30.922 20.5217 30.4872 20.5217 30.0151V29.9722Z" fill="white"/>
<path d="M33.5212 35.7013V34.0677C33.3385 34.3109 33.1418 34.5426 32.9254 34.7658C32.709 34.986 32.4673 35.1834 32.2031 35.3551C31.9389 35.5268 31.6438 35.6641 31.3234 35.7642C31.003 35.8643 30.6405 35.913 30.2358 35.913C29.0217 35.913 28.083 35.5382 27.4197 34.7829C26.7564 34.0305 26.4248 32.992 26.4248 31.6732V24.2808H29.6062V30.6347C29.6062 31.4014 29.7748 31.9764 30.1093 32.3684C30.4437 32.7575 30.9187 32.952 31.5314 32.952C32.1441 32.952 32.6303 32.7575 32.9872 32.3684C33.3441 31.9793 33.5212 31.4014 33.5212 30.6347V24.2808H36.7026V35.7013H33.5212Z" fill="white"/>
<path d="M50.0031 30.7146C49.9947 30.8291 49.9862 30.9635 49.9722 31.1209H42.1648C42.3194 31.859 42.6369 32.4168 43.1175 32.7945C43.5981 33.1721 44.1967 33.358 44.9078 33.358C45.439 33.358 45.9139 33.2665 46.3299 33.0805C46.7486 32.8975 47.1814 32.5971 47.6283 32.1851L49.4494 33.8244C48.9183 34.4909 48.2775 35.0145 47.5243 35.3892C46.7711 35.764 45.8858 35.9528 44.8656 35.9528C44.0281 35.9528 43.2496 35.8098 42.533 35.5266C41.8135 35.2433 41.1924 34.8371 40.6696 34.3107C40.1469 33.7843 39.7394 33.1635 39.4443 32.4454C39.152 31.7274 39.0059 30.9292 39.0059 30.0481V30.0051C39.0059 29.1955 39.1408 28.4288 39.4134 27.705C39.686 26.9812 40.0654 26.349 40.5544 25.8083C41.0434 25.2676 41.6252 24.8413 42.3025 24.5295C42.9798 24.2176 43.7302 24.0603 44.5537 24.0603C45.4895 24.0603 46.2989 24.232 46.9819 24.5724C47.6648 24.9128 48.2353 25.3706 48.6878 25.9456C49.1403 26.5206 49.4747 27.1815 49.694 27.9282C49.9104 28.6748 50.0172 29.453 50.0172 30.2626V30.3055C50.0143 30.4686 50.0087 30.6031 50.0031 30.7146ZM46.1612 27.3388C45.7565 26.8925 45.2197 26.6665 44.5509 26.6665C43.882 26.6665 43.3396 26.8868 42.9292 27.3274C42.5161 27.768 42.2491 28.3573 42.1226 29.0954H46.9172C46.8189 28.3716 46.5659 27.7851 46.1612 27.3388Z" fill="white"/>
<path d="M66.3215 35.7012V29.3473C66.3215 28.5834 66.1613 28.0055 65.8409 27.6136C65.5205 27.2245 65.0596 27.03 64.4582 27.03C63.8567 27.03 63.3874 27.2245 63.0445 27.6136C62.7017 28.0027 62.533 28.5806 62.533 29.3473V35.7012H59.3488V29.3473C59.3488 28.5834 59.1886 28.0055 58.8682 27.6136C58.5478 27.2245 58.0869 27.03 57.4855 27.03C56.884 27.03 56.4147 27.2245 56.0718 27.6136C55.729 28.0027 55.5603 28.5806 55.5603 29.3473V35.7012H52.3789V24.2807H55.5603V25.9143C55.7402 25.6711 55.9397 25.4394 56.1561 25.2162C56.3725 24.9959 56.6142 24.7985 56.8784 24.6269C57.1426 24.4552 57.4405 24.3179 57.7693 24.2178C58.0981 24.1177 58.4635 24.0662 58.8682 24.0662C59.6074 24.0662 60.2453 24.2235 60.7821 24.5382C61.3189 24.8529 61.7349 25.3049 62.0271 25.8914C62.5162 25.2906 63.0586 24.8357 63.66 24.5296C64.2586 24.2206 64.9444 24.069 65.7116 24.069C66.8976 24.069 67.8251 24.4238 68.4968 25.1333C69.1657 25.8427 69.5029 26.887 69.5029 28.2659V35.7012H66.3215Z" fill="white"/>
<path d="M27.3536 53.2153V51.5875C26.963 52.1225 26.4908 52.563 25.94 52.9092C25.3891 53.2554 24.6949 53.427 23.8574 53.427C23.2026 53.427 22.5674 53.2983 21.9519 53.0437C21.3365 52.789 20.794 52.4086 20.3191 51.905C19.8441 51.4015 19.4647 50.7836 19.178 50.0512C18.8914 49.3188 18.748 48.4778 18.748 47.5251V47.4822C18.748 46.5295 18.8914 45.6884 19.178 44.956C19.4647 44.2237 19.8413 43.6057 20.3078 43.1022C20.7744 42.5987 21.3168 42.2182 21.9295 41.9636C22.5421 41.709 23.1857 41.5802 23.8546 41.5802C24.7062 41.5802 25.406 41.749 25.9596 42.0866C26.5105 42.4242 26.9742 42.819 27.3508 43.271V37.6609H30.5322V53.2153H27.3536ZM27.3958 47.485C27.3958 47.013 27.3227 46.581 27.1766 46.1862C27.0304 45.7943 26.8337 45.4567 26.5892 45.1792C26.3447 44.8988 26.058 44.6871 25.732 44.5355C25.4032 44.3867 25.0519 44.3095 24.6753 44.3095C24.2987 44.3095 23.9445 44.3839 23.6185 44.5355C23.2897 44.6843 23.0002 44.8988 22.7501 45.1792C22.5 45.4596 22.3004 45.7914 22.1543 46.1776C22.0082 46.5638 21.9351 46.9987 21.9351 47.485V47.5279C21.9351 48 22.0082 48.432 22.1543 48.8268C22.3004 49.2187 22.5 49.5563 22.7501 49.8338C23.0002 50.1142 23.2897 50.3259 23.6185 50.4775C23.9474 50.6262 24.2987 50.7035 24.6753 50.7035C25.0519 50.7035 25.4032 50.6291 25.732 50.4775C26.0608 50.3287 26.3447 50.1142 26.5892 49.8338C26.8337 49.5534 27.0276 49.2187 27.1766 48.8268C27.3255 48.4348 27.3958 48 27.3958 47.5279V47.485Z" fill="white"/>
<path d="M33.4443 40.5389V37.6609H36.7948V40.5389H33.4443ZM33.5287 53.2153V41.7948H36.7104V53.2153H33.5287Z" fill="white"/>
<path d="M47.6029 51.396C47.3865 51.8566 47.083 52.2371 46.6924 52.5346C46.3017 52.8321 45.8436 53.0553 45.3209 53.2069C44.7981 53.3557 44.236 53.4301 43.6346 53.4301C42.8392 53.4301 42.027 53.2927 41.1951 53.0152C40.3632 52.7377 39.5735 52.3 38.8203 51.705L40.1806 49.5736C40.7932 50.0285 41.4059 50.369 42.013 50.595C42.62 50.821 43.1877 50.9354 43.7189 50.9354C44.1798 50.9354 44.5171 50.8582 44.7335 50.7008C44.9499 50.5435 45.0567 50.3375 45.0567 50.0829V50.04C45.0567 49.8683 44.9949 49.7195 44.8684 49.5937C44.7419 49.4649 44.5705 49.3562 44.3541 49.2647C44.1377 49.1731 43.8904 49.0844 43.6121 48.9986C43.3339 48.9128 43.0388 48.8212 42.7324 48.7211C42.3418 48.6067 41.9483 48.4694 41.5493 48.3063C41.1502 48.1432 40.7932 47.9287 40.47 47.6683C40.1497 47.4051 39.8883 47.0819 39.6859 46.6985C39.4836 46.3151 39.3824 45.846 39.3824 45.291V45.248C39.3824 44.6644 39.4892 44.1495 39.7056 43.7032C39.922 43.2569 40.2143 42.8764 40.5853 42.5646C40.9534 42.2527 41.3862 42.0182 41.8837 41.8608C42.3783 41.7035 42.9123 41.6262 43.4856 41.6262C44.1967 41.6262 44.919 41.7435 45.6525 41.9781C46.386 42.2127 47.0577 42.536 47.6732 42.9479L46.4591 45.1851C45.8998 44.859 45.3574 44.5986 44.8262 44.407C44.2951 44.2153 43.8285 44.118 43.4238 44.118C43.0332 44.118 42.7409 44.1924 42.5441 44.3412C42.3474 44.4899 42.2519 44.6787 42.2519 44.9047V44.9477C42.2519 45.105 42.3137 45.2423 42.4402 45.3625C42.5666 45.4826 42.7324 45.5971 42.9432 45.7029C43.154 45.8088 43.3929 45.9118 43.6655 46.0119C43.9381 46.112 44.2276 46.2122 44.5339 46.3094C44.9246 46.4382 45.3209 46.5898 45.7284 46.7672C46.1331 46.9445 46.4956 47.162 46.816 47.4166C47.1364 47.6712 47.4034 47.9859 47.6114 48.3549C47.8193 48.724 47.9261 49.1731 47.9261 49.6967V49.7396C47.929 50.3833 47.8193 50.9325 47.6029 51.396Z" fill="white"/>
<path d="M58.1107 51.396C57.8943 51.8566 57.5908 52.2371 57.2002 52.5346C56.8095 52.8321 56.3514 53.0553 55.8287 53.2069C55.3059 53.3557 54.7438 53.4301 54.1424 53.4301C53.3471 53.4301 52.5348 53.2927 51.7029 53.0152C50.8711 52.7377 50.0813 52.3 49.3281 51.705L50.6884 49.5736C51.3011 50.0285 51.9137 50.369 52.5208 50.595C53.1278 50.821 53.6955 50.9354 54.2267 50.9354C54.6876 50.9354 55.0249 50.8582 55.2413 50.7008C55.4577 50.5435 55.5645 50.3375 55.5645 50.0829V50.04C55.5645 49.8683 55.5027 49.7195 55.3762 49.5937C55.2497 49.4649 55.0783 49.3562 54.8619 49.2647C54.6455 49.1731 54.3982 49.0844 54.1199 48.9986C53.8417 48.9128 53.5466 48.8212 53.2403 48.7211C52.8496 48.6067 52.4561 48.4694 52.0571 48.3063C51.658 48.1432 51.3011 47.9287 50.9779 47.6683C50.6575 47.4051 50.3961 47.0819 50.1937 46.6985C49.9914 46.3151 49.8902 45.846 49.8902 45.291V45.248C49.8902 44.6644 49.997 44.1495 50.2134 43.7032C50.4298 43.2569 50.7221 42.8764 51.0931 42.5646C51.4612 42.2527 51.8941 42.0182 52.3915 41.8608C52.8861 41.7035 53.4201 41.6262 53.9935 41.6262C54.7045 41.6262 55.4268 41.7435 56.1603 41.9781C56.8938 42.2127 57.5655 42.536 58.181 42.9479L56.9669 45.1851C56.4076 44.859 55.8652 44.5986 55.334 44.407C54.8029 44.2153 54.3363 44.118 53.9316 44.118C53.541 44.118 53.2487 44.1924 53.052 44.3412C52.8552 44.4899 52.7597 44.6787 52.7597 44.9047V44.9477C52.7597 45.105 52.8215 45.2423 52.948 45.3625C53.0744 45.4826 53.2403 45.5971 53.451 45.7029C53.6618 45.8088 53.9007 45.9118 54.1733 46.0119C54.4459 46.112 54.7354 46.2122 55.0417 46.3094C55.4324 46.4382 55.8287 46.5898 56.2362 46.7672C56.6409 46.9445 57.0034 47.162 57.3238 47.4166C57.6442 47.6712 57.9112 47.9859 58.1192 48.3549C58.3271 48.724 58.4339 49.1731 58.4339 49.6967V49.7396C58.4368 50.3833 58.3271 50.9325 58.1107 51.396Z" fill="white"/>
<path d="M71.173 48.2317C71.1646 48.3462 71.1562 48.4806 71.1421 48.638H63.3347C63.4893 49.3761 63.8069 49.9339 64.2874 50.3116C64.768 50.6892 65.3667 50.8751 66.0777 50.8751C66.6089 50.8751 67.0838 50.7836 67.4998 50.5976C67.9185 50.4145 68.3513 50.1142 68.7982 49.7022L70.6194 51.3415C70.0882 52.008 69.4474 52.5316 68.6942 52.9063C67.941 53.2811 67.0557 53.4699 66.0355 53.4699C65.198 53.4699 64.4195 53.3269 63.7029 53.0437C62.9834 52.7604 62.3623 52.3542 61.8396 51.8278C61.3168 51.3014 60.9093 50.6806 60.6142 49.9625C60.3219 49.2445 60.1758 48.4463 60.1758 47.5651V47.5222C60.1758 46.7126 60.3107 45.9459 60.5833 45.2221C60.8559 44.4983 61.2353 43.8661 61.7243 43.3254C62.2133 42.7847 62.7951 42.3584 63.4724 42.0466C64.1497 41.7347 64.9001 41.5774 65.7236 41.5774C66.6595 41.5774 67.4689 41.749 68.1518 42.0895C68.8347 42.4299 69.4053 42.8877 69.8577 43.4627C70.3102 44.0377 70.6447 44.6986 70.8639 45.4453C71.0803 46.1919 71.1871 46.9701 71.1871 47.7797V47.8226C71.1843 47.9828 71.1786 48.1173 71.173 48.2317ZM67.3312 44.8531C66.9264 44.4068 66.3897 44.1808 65.7208 44.1808C65.0519 44.1808 64.5095 44.401 64.0991 44.8416C63.686 45.2822 63.419 45.8715 63.2926 46.6096H68.0872C67.986 45.8858 67.7359 45.2994 67.3312 44.8531Z" fill="white"/>
<path d="M79.1958 54.4997C82.2023 54.4997 84.6396 52.0187 84.6396 48.9582C84.6396 45.8977 82.2023 43.4167 79.1958 43.4167C76.1892 43.4167 73.752 45.8977 73.752 48.9582C73.752 52.0187 76.1892 54.4997 79.1958 54.4997Z" fill="#D3145D"/>
<path d="M91.3308 30.5573H82.4274C77.5934 30.5573 73.6729 26.5664 73.6729 21.6458H82.5763C87.4103 21.6458 91.3308 25.6338 91.3308 30.5573Z" fill="#D3145D"/>
<path d="M73.6729 41.005H82.5763C87.4103 41.005 91.3308 37.0142 91.3308 32.0935H82.4274C77.5906 32.0935 73.6729 36.0815 73.6729 41.005Z" fill="#D3145D"/>
</g>
<defs>
<clipPath id="clip0">
<rect width="256.043" height="74" fill="white" transform="translate(0.306641)"/>
</clipPath>
</defs>
</svg>
