<svg width="130" height="850" viewBox="0 0 130 850" fill="none" xmlns="http://www.w3.org/2000/svg">
<path d="M92.3356 850L89.2053 821.667C85.8388 793.333 79.9325 736.667 63.9856 680C48.0388 623.333 23.2325 566.667 10.416 510C-2.16436 453.333 -2.16436 396.667 4.15532 340C10.2388 283.333 23.2325 226.667 29.316 170C35.6356 113.333 35.6356 56.6666 35.6356 28.3333L35.6356 4.24951e-07L125.5 1.49657e-06L125.5 28.3333C125.5 56.6666 128 112 125.5 170C125.5 226.667 128 282 125.5 339C125.5 395.667 130 452.5 127.5 510C132 565.5 127.5 619 127.5 680C127.5 736.667 127.5 793.333 127.5 821.667L127.5 850L92.3356 850Z" fill="#FAFAFA"/>
</svg>
